{
  "name": "",
  "css_prefix_text": "icon-",
  "css_use_suffix": false,
  "hinting": true,
  "units_per_em": 1000,
  "ascent": 850,
  "glyphs": [
    {
      "uid": "0f4cae16f34ae243a6144c18a003f2d8",
      "css": "cancel-circled",
      "code": 59393,
      "src": "fontawesome"
    },
    {
      "uid": "d4aeb916de8d3aea716442778346d244",
      "css": "plus-circled-1",
      "code": 59394,
      "src": "elusive"
    }
  ]
}